Automated Text Analysis
…
---

# Counting words 

```r
wide_rt %>%
  count(word) %>%
  arrange(desc(n))
```

```
## # A tibble: 696 x 2
##    word        n
##    <chr>   <int>
##  1 vaccine    64
##  2 the        48
##  3 of         28
##  4 covid19    23
##  5 to         22
##  6 in         21
##  7 a          19
##  8 and        18
##  9 covid      14
## 10 florida    12
## # … with 686 more rows
```
…
```r
wide_rt %>%
  count(word) %>%
  # Removing stopwords 
  anti_join(stop_words) %>%
  arrange(desc(n))
```

```
## Joining, by = "word"
```

```
## # A tibble: 532 x 2
##    word          n
##    <chr>     <int>
##  1 vaccine      64
##  2 covid19      23
##  3 covid        14
##  4 florida      12
##  5 appts         8
##  6 people        6
##  7 publix        6
##  8 remaining     6
##  9 dose          5
## 10 syringe       5
## # … with 522 more rows
```
…
